{
  "ar": {
    "translators": ["Mahwiii"],
    "name": "Arabic",
    "local_name": "العربية",
    "iso_code": "ar",
    "iso_version": 1,
    "font": {
        "family": "AlHor",
        "size": 45
    }
  },
  "at": {
    "translators": ["Mariu Fueyes"],
    "name": "Asturian",
    "local_name": "Asturianu",
    "iso_code": "ast",
    "iso_version": 2,
    "font": {
        "family": "Lavi",
        "size": 36
    }
  },
  "bn": {
    "translators": ["Hulo Biral the Tomcat"],
    "name": "Bengali",
    "local_name": "বাংলা",
    "iso_code": "bn",
    "iso_version": 1,
    "font": {
        "family": "Lohit Bengali",
        "size": 36,
        "weight": "bold"
    }
  },
  "br": {
    "translators": ["Stefan Carpentier"],
    "name": "Breton",
    "local_name": "Brezhoneg",
    "iso_code": "br",
    "iso_version": 1,
    "font": {
        "family": "Lavi",
        "size": 36
    }
  },
  "ca": {
    "translators": ["Juan José Segura"],
    "name": "Catalan",
    "local_name": "Català",
    "iso_code": "ca",
    "iso_version": 1,
    "font": {
        "family": "Lavi",
        "size": 36
    }
  },
  "cs": {
    "translators": ["Kateřina Fleknová", "Martin Doucha"],
    "name": "Czech",
    "local_name": "Čeština",
    "iso_code": "cs",
    "iso_version": 1,
    "font": {
        "family": "Lavi",
        "size": 36
    }
  },
  "da": {
    "translators": ["Emmiline Alapetite", "Alexandre Alapetite", "Rikke Skaaning Alapetite", "Juan José Segura", "Marie Moestrup"],
    "name": "Danish",
    "local_name": "Dansk",
    "iso_code": "da",
    "iso_version": 1,
    "font": {
        "family": "Lavi",
        "size": 36
    }
  },
  "de": {
    "translators": ["Alexandra Jordan", "Helmar Suschka", "Carlo Gandolfi", "colognella", "Julian Eric Ain", "Philipp (hapit) Hemmer", "Ret Samys", "Martin Disch", "Ulrich Greve", "kate"],
    "name": "German",
    "local_name": "Deutsch",
    "iso_code": "de",
    "iso_version": 1,
    "font": {
        "family": "Lavi",
        "size": 36
    }
  },
  "el": {
    "translators": ["Dimitris Axiotis", "George Karettas"],
    "name": "Greek",
    "local_name": "Ελληνικά",
    "iso_code": "el",
    "iso_version": 1,
    "font": {
        "family": "Pecita",
        "size": 42
    }
  },
  "en": {
    "translators": ["Alex Gryson", "David Revoy", "Amireti"],
    "name": "English",
    "local_name": "English",
    "iso_code": "en",
    "iso_version": 1,
    "font": {
        "family": "Lavi",
        "size": 36
    }
  },
  "es": {
    "translators": ["TheFaico"],
    "name": "Spanish",
    "local_name": "Español",
    "iso_code": "es",
    "iso_version": 1,
    "font": {
        "family": "Lavi",
        "size": 36
    }
  },
  "mx": {
    "translators": ["RJ Quiralta", "Giovanni Alfredo Garciliano Díaz"],
    "name": "Mexican Spanish",
    "local_name": "Español mexicano",
    "iso_code": "es",
    "iso_locale": "MX",
    "iso_version": 1,
    "font": {
        "family": "Lavi",
        "size": 36
    }
  },
  "eo": {
    "translators": ["LibreFan", "Kaoseto kaj Nay Ledofiŝ", "Kaoseto", "Spenĉjo", "Naj Ledofiŝ"],
    "name": "Esperanto",
    "local_name": "Esperanto",
    "iso_code": "eo",
    "iso_version": 1,
    "font": {
        "family": "Lavi",
        "size": 36
    }
  },
  "cn": {
    "translators": ["Ran Zhuang", "Yan Jing", "Lou Simons"],
    "name": "Chinese (Simplified)",
    "local_name": "中文",
    "iso_code": "zh",
    "iso_locale": "CN",
    "iso_script": "Hans",
    "iso_version": 1,
    "font": {
        "family": "Xiaolai SC",
        "size": 36
    }
  },
  "fa": {
    "translators": ["Aslan Zamanloo", "Mohammad Kazemi"],
    "name": "Persian",
    "local_name": "فارسی",
    "iso_code": "fa",
    "iso_version": 1,
    "font": {
        "family": "XP Ziba",
        "weight": "bold",
        "size": 48
    }
  },
  "ph": {
    "translators": ["Paolo Abes"],
    "name": "Filipino",
    "local_name": "Filipino",
    "iso_code": "fil",
    "iso_version": 2,
    "font": {
        "family": "Lavi",
        "size": 36
    }
  },
  "fr": {
    "translators": ["David Revoy", "Aurélien Gâteau", "Remi Rampin", "Xavier Dolques", "Nartance", "Valvin", "Calimeroteknik"],
    "name": "French",
    "local_name": "Français",
    "iso_code": "fr",
    "iso_version": 1,
    "font": {
        "family": "Lavi",
        "size": 36
    }
  },
  "gd": {
    "translators": ["GunChleoc"],
    "name": "Scottish Gaelic",
    "local_name": "Gàidhlig",
    "iso_code": "gd",
    "iso_version": 1,
    "font": {
        "family": "Lavi",
        "size": 36
    }
  },
  "gl": {
    "translators": ["Xosé M."],
    "name": "Galician",
    "local_name": "Galego",
    "iso_code": "gl",
    "iso_version": 1,
    "font": {
        "family": "Lavi",
        "size": 36
    }
  },
  "go": {
    "translators": ["Patrik Deriano", "Gwenaelle Lefeuvre"],
    "name": "Gallo",
    "local_name": "Galo",
    "iso_code": "",
    "iso_version": -1,
    "font": {
        "family": "Lavi",
        "size": 36
    }
  },
  "gb": {
    "translators": ["Hector Ortega"],
    "name": "Globasa",
    "local_name": "Globasa",
    "iso_code": "",
    "iso_version": -1,
    "font": {
        "family": "Lavi",
        "size": 36
    }
  },
  "kr": {
    "translators": ["Jihoon Kim", "Shikamaru \"initbar\" Yamamoto"],
    "name": "Korean (Hangul)",
    "local_name": "한국어 (한글)",
    "iso_code": "ko",
    "iso_version": 1,
    "iso_script": "Hang",
    "font": {
        "family": "Nanum Pen Script OTF",
        "size": 52
    }
  },
  "kh": {
    "translators": ["Jihoon Kim", "Shikamaru \"initbar\" Yamamoto"],
    "name": "Korean (Mixed script)",
    "local_name": "韓國語 (漢文混用)",
    "iso_code": "ko",
    "iso_version": 1,
    "iso_script": "Kore",
    "font": {
        "family": "Xiaolai SC",
        "size": 36
    }
  },
  "hi": {
    "translators": ["Neha Deogade"],
    "name": "Hindi",
    "local_name": "हिन्दी",
    "iso_code": "hi",
    "iso_version": 1,
    "font": {
        "family": "Lohit Devanagari",
        "size": 36,
        "weight": "bold"
    }
  },
    "ie": {
    "translators": ["Cale"],
    "name": "Interlingue",
    "local_name": "Interlingue",
    "iso_code": "ie",
    "iso_version": 1,
    "font": {
        "family": "Lavi",
        "size": 36
    }
  },
  "io": {
    "translators": ["Gilles-Philippe Morin", "Brian E. Drake", "William Johnsson"],
    "name": "Ido",
    "local_name": "Ido",
    "iso_code": "io",
    "iso_version": 1,
    "font": {
        "family": "Lavi",
        "size": 36
    }
  },
  "id": {
    "translators": ["Bonaventura Aditya Perdana", "Reinaldo Calvin"],
    "name": "Indonesian",
    "local_name": "Bahasa Indonesia",
    "iso_code": "id",
    "iso_version": 1,
    "font": {
        "family": "Lavi",
        "size": 36
    }
  },
  "it": {
    "translators": ["Antonio Parisi (Corrections)", "Carlo Gandolfi", "Matteo Bertini"],
    "name": "Italian",
    "local_name": "Italiano",
    "iso_code": "it",
    "iso_version": 1,
    "font": {
        "family": "Lavi",
        "size": 36
    }
  },
  "kw": {
    "translators": ["Steve Harris"],
    "name": "Cornish",
    "local_name": "Kernewek",
    "iso_code": "kw",
    "iso_version": 1,
    "font": {
        "family": "Lavi",
        "size": 36
    }
  },
  "kt": {
    "translators": ["Erwhann-Rouge", "webmistusik", "Mardixuran", "Kotava dokalixo"],
    "name": "Kotava",
    "local_name": "Kotava",
    "iso_code": "avk",
    "iso_version": 3,
    "font": {
        "family": "Lavi",
        "size": 36
    }
  },
  "la": {
    "translators": ["Guillaume Lestringant"],
    "name": "Latin",
    "local_name": "Latina",
    "iso_code": "la",
    "iso_version": 1,
    "font": {
        "family": "Lavi",
        "size": 36
    }
  },
  "ls": {
    "translators": ["Gerson"],
    "name": "Spanish (Latin America)",
    "local_name": "Español Latino",
    "iso_code": "es",
    "iso_version": 1,
    "iso_locale": "419",
    "font": {
        "family": "Lavi",
        "size": 36
    }
  },
  "ld": {
    "translators": ["Arlo James Barnes", "Julius Strake"],
    "name": "Láadan",
    "local_name": "Láadan",
    "iso_code": "ldn",
    "iso_version": 3,
    "font": {
        "family": "Lavi",
        "size": 36
    }
  },
  "lf": {
    "translators": ["Andrew Kern \"ganelon\""],
    "name": "Lingua Franca Nova",
    "local_name": "Lingua Franca Nova",
    "iso_code": "lfn",
    "iso_version": 3,
    "font": {
        "family": "Lavi",
        "size": 36
    }
  },
  "jb": {
    "translators": ["la gleki (ly. Gleki Arxokuna ly.)", "lai krtis", "mezohe"],
    "name": "Lojban (Latin)",
    "local_name": "la .lojban.",
    "iso_code": "jbo",
    "iso_script": "Latn",
    "iso_version": 2,
    "font": {
        "family": "Lavi",
        "size": 36
    },
    "title_regex": [
        {
            "pattern": "^i ([0-9]+) mo'o ",
            "replacement": "ni'o \\1 mo'o "
        }
    ]
  },
  "jz": {
    "translators": ["la gleki ku goi la'o ly. Gleki Arxokuna ly."],
    "name": "Lojban (zbalermorna)",
    "local_name": "󢍡󢌀󢍩󢎱󢐠",
    "iso_code": "jbo",
    "iso_script": "Zzzz",
    "iso_version": 2,
    "font": {
        "family": "zbalermorna",
        "size": 40
    }
  },
  "hu": {
    "translators": ["Halász Gábor \"Hali\"", "StarWish", "grin"],
    "name": "Hungarian",
    "local_name": "Magyar",
    "iso_code": "hu",
    "iso_version": 1,
    "font": {
        "family": "Lavi",
        "size": 36
    }
  },
  "ml": {
    "translators": ["Pranav Jerry"],
    "name": "Malayalam",
    "local_name": "മലയാളം",
    "iso_code": "ml",
    "iso_version": 1,
    "font": {
        "family": "Chilanka",
        "size": 36
    }
  },
  "ms": {
    "translators": ["muhdnurhidayat"],
    "name": "Malay",
    "local_name": "Bahasa Melayu",
    "iso_code": "ms",
    "iso_version": 1,
    "font": {
        "family": "Lavi",
        "size": 36
    }
  },
  "mw": {
    "translators": ["Mat Vaz"],
    "name": "Mirandese",
    "local_name": "Mirandés",
    "iso_code": "mwl",
    "iso_version": 2,
    "font": {
        "family": "Lavi",
        "size": 36
    }
  },
  "nl": {
    "translators": ["Midgard", "Willem Sonke", "Peter Moonen", "Marno van der Maas"],
    "name": "Dutch",
    "local_name": "Nederlands",
    "iso_code": "nl",
    "iso_version": 1,
    "font": {
        "family": "Lavi",
        "size": 36
    }
  },
  "ja": {
    "translators": ["guruguru"],
    "name": "Japanese",
    "local_name": "日本語",
    "iso_code": "ja",
    "iso_version": 1,
    "font": {
        "family": "Rounded M+ 1c",
        "size": 36
    }
  },
  "no": {
    "translators": ["Thomas Nordstrøm"],
    "name": "Norwegian Bokmål",
    "local_name": "Norsk (bokmål)",
    "iso_code": "nb",
    "iso_version": 1,
    "font": {
        "family": "Lavi",
        "size": 36
    }
  },
  "nn": {
    "translators": ["Arild Torvund Olsen", "Karl Ove Hufthammer"],
    "name": "Norwegian Nynorsk",
    "local_name": "Norsk (nynorsk)",
    "iso_code": "nn",
    "iso_version": 1,
    "font": {
        "family": "Lavi",
        "size": 36
    }
  },
    "nm": {
   "translators": ["Julien R. Mauduit."],
   "name": "Norman",
   "local_name": "Normaund",
   "iso_code": "nrf",
   "iso_version": 3,
   "font": {
       "family": "Lavi",
       "size": 36
   }
  },
  "oc": {
    "translators": ["Quentin", "Aure Séguier"],
    "name": "Occitan",
    "local_name": "Occitan lengadocian",
    "iso_code": "oc",
    "iso_version": 1,
    "font": {
        "family": "Lavi",
        "size": 36
    }
  },
  "ns": {
    "translators": ["Rebecca"],
    "name": "Low German",
    "local_name": "Plattdüütsch",
    "iso_code": "nds",
    "iso_version": 2,
    "font": {
        "family": "Lavi",
        "size": 36
    }
  },
  "pl": {
    "translators": ["Przemysław \"Kev\" Chudzia", "Sölve Svartskogen"],
    "name": "Polish",
    "local_name": "Polski",
    "iso_code": "pl",
    "iso_version": 1,
    "font": {
        "family": "Lavi",
        "size": 36
    }
  },
  "lt": {
    "translators": ["Beatričė Kasiliauskaitė"],
    "name": "Lithuanian",
    "local_name": "Lietuvių",
    "iso_code": "lt",
    "iso_version": 1,
    "font": {
        "family": "Lavi",
        "size": 36
    }
  },
  "pt": {
    "translators": ["Alexandre E. Almeida", "Frederico Batista"],
    "name": "Portuguese (Brazil)",
    "local_name": "Português (Brasil)",
    "iso_code": "pt",
    "iso_locale": "BR",
    "iso_version": 1,
    "font": {
        "family": "Lavi",
        "size": 36
    }
  },
  "rc": {
    "translators": ["Max"],
    "name": "Réunion Creole",
    "local_name": "Kréol Rényoné",
    "iso_code": "rcf",
    "iso_version": 3,
    "font": {
        "family": "Lavi",
        "size": 36
    }
  },
  "ro": {
    "translators": ["Costin-Sorin Ionescu"],
    "name": "Romanian",
    "local_name": "Română",
    "iso_code": "ro",
    "iso_version": 1,
    "font": {
        "family": "Fondamento",
        "size": 36
    }
  },
  "ru": {
    "translators": ["Andrew \"Akari\" Alexeyew", "Denis \"uncle Night\" Prisukhin", "Gleki \"lagleki\" Arxokuna"],
    "name": "Russian",
    "local_name": "Русский",
    "iso_code": "ru",
    "iso_version": 1,
    "font": {
        "family": "Neucha",
        "size": 42
    }
  },
  "sb": {
    "translators": ["Olivier Simon", "Scott Walters"],
    "name": "Sambahsa",
    "local_name": "Sambahsa",
    "iso_code": "",
    "iso_version": -1,
    "font": {
        "family": "Lavi",
        "size": 36
    }
  },
  "si": {
    "translators": ["Tharinda Divakara"],
    "name": "Sinhala",
    "local_name": "සිංහල",
    "iso_code": "si",
    "iso_version": 1,
    "font": {
        "family": "Noto Sans Sinhala",
        "size": 32
    }
  },
  "sk": {
    "translators": ["talime"],
    "name": "Slovak",
    "local_name": "Slovenčina",
    "iso_code": "sk",
    "iso_version": 1,
    "font": {
        "family": "Lavi",
        "size": 36
    }
  },
  "sl": {
    "translators": ["Andrej Ficko", "Gorazd Gorup"],
    "name": "Slovenian",
    "local_name": "Slovenščina",
    "iso_code": "sl",
    "iso_version": 1,
    "font": {
        "family": "Lavi",
        "size": 36
    }
  },
  "sz": {
    "translators": ["Grzegorz Kulik"],
    "name": "Silesian",
    "local_name": "Ślůnski",
    "iso_code": "szl",
    "iso_version": 3,
    "font": {
        "family": "Lavi",
        "size": 36
    }
  },
  "sr": {
    "translators": ["Marko Ivancevic"],
    "name": "Serbian (Cyrillic)",
    "local_name": "Српски",
    "iso_code": "sr",
    "iso_script": "Cyrl",
    "iso_version": 1,
    "font": {
        "family": "Neucha",
        "size": 36
    }
  },
  "tr": {
    "translators": ["Ümit Kaya"],
    "name": "Turkish",
    "local_name": "Türkçe",
    "iso_code": "tr",
    "iso_version": 1,
    "font": {
        "family": "Lavi",
        "size": 36
    }
  },
  "tp": {
    "translators": ["Ret \"jan Ke\" Samys"],
    "name": "Toki Pona",
    "local_name": "toki pona",
    "iso_code": "tok",
    "iso_script": "Latn",
    "iso_version": 3,
    "font": {
        "family": "Lavi",
        "size": 36
    }
  },
  "sp": {
    "translators": ["Ret \"jan Ke\" Samys"],
    "name": "sitelen pona",
    "local_name": "sitelen-pona",
    "iso_code": "tok",
    "iso_script": "Zzzz",
    "iso_version": 3,
    "font": {
        "family": "linja sike",
        "size": 45
    }
  },
  "su": {
    "translators": ["Amiruloh"],
    "name": "Sundanese",
    "local_name": "basa Sunda",
    "iso_code": "su",
    "iso_version": 1,
    "font": {
        "family": "Lavi",
        "size": 36
    }
  },
  "fi": {
    "translators": ["Kari Lehto"],
    "name": "Finnish",
    "local_name": "Suomi",
    "iso_code": "fi",
    "iso_version": 1,
    "font": {
        "family": "Lavi",
        "size": 36
    }
  },
  "sv": {
    "translators": ["Mikael \"Quiphius\" Olofsson", "Quiphius"],
    "name": "Swedish",
    "local_name": "Svenska",
    "iso_code": "sv",
    "iso_version": 1,
    "font": {
        "family": "Lavi",
        "size": 36
    }
  },
  "uk": {
    "translators": ["Denis \"uncle Night\" Prisukhin", "Leonid \"Deburger\" Androschuk"],
    "name": "Ukrainian",
    "local_name": "Українська",
    "iso_code": "uk",
    "iso_version": 1,
    "font": {
        "family": "Blogger Sans",
        "size": 40
    }
  },
  "vi": {
    "translators": ["Binh Pham", "Hồ Châu", "Phiên bản Tiếng Việt"],
    "name": "Vietnamese",
    "local_name": "Tiếng Việt",
    "iso_code": "vi",
    "iso_version": 1,
    "font": {
        "family": "ComicSpice",
        "size": 36
    }
  },
  "he": {
    "translators": ["Effy Ben-Shitrit"],
    "name": "Hebrew",
    "local_name": "עברית",
    "iso_code": "he",
    "iso_locale": "IL",
    "iso_version": 1,
    "font": {
        "family": "Gveret Levin AlefAlefAlef",
        "size": 36,
        "weight": "regular"
    }
  }
}

