<?xml version="1.0" encoding="UTF-8"?><svg width="560" height="120" version="1.1" xmlns="http://www.w3.org/2000/svg">
 <g transform="matrix(.27602 0 0 .27602 -57.131 -134.27)">
  <path d="m2182 663.74c-12.684 0.0715-30.488 8.732-34.094 12.062-5.3143 4.9084-11.384 14.666-16.156 26.781-0.446 1.1322 0.7758 3.7692 2.125 2.0938 10.311-12.803 29.403-20.787 41.125-20.188 8.3479 0.42671 11.009 7.0763 11.875 14.594-1.717-0.78214-3.6028-1.0783-5.6562-0.65625-10.934 2.2476-22.203 10.039-31.219 17.594 0.093 4.9832-0.3754 9.8546-1.5 14.531-2.3238-1.4524-4.5168-4.346-5.9062-8-3.49 3.2413-6.3183 6.0702-8.1876 7.8438-3.1801 3.0175-8.7019 14.507-8.625 24.25 0.095 11.992 6.233 19.626 15.531 21.938 4.0803-3.0269 9.5606-4.3663 11.719-4.5625 2.6834 0.45019 5.0005 1.9731 7.0626 3.9688 9.3674-1.9416 19.483-5.7207 27.781-9.7812-0.015 2.0214-0.01 4.041-0.031 6.0625 0.306 2.8918 2.5747 4.4169 5.5624 4.9375 7.7102 1.3433 20.323-1.3634 27.844-7.0312 4.9658-3.7426 6.8083-7.5135 4.5938-10.406 3.9371-1.0152 9.4241-3.5081 11.75-5.7188 2.4447-2.3239 4.2715-9.2101-1.3438-5.8125-4.8232 2.9183-13.392 7.171-24.469 1.4062-1.057-3.7261-0.036-29.293-0.1874-40.25-7.8174 2.4884-7.4623-8.6527-0.9376-14.25-2.3751-10.331-9.3461-24.13-20.906-29.906-2.142-1.0703-4.8229-1.5165-7.75-1.5zm-0.1875 63.719c2.2957-0.0614 4.3429 0.45687 5.9375 0.78125 0.069 4.6565 0.1261 9.3117 0.1562 13.969-10.679 8.6689-22.197 16.125-34.25 16.125-5.2728 0-7.625-1.2937-7.625-4.3438 0-4.0046 2.4475-7.9182 5.5313-10.5 8.8902-7.443 18.113-12.853 27.219-15.562 1.0312-0.3068 2.0609-0.44279 3.0313-0.46875z"/>
  <g transform="translate(-84.14)">
   <path transform="translate(0,389.36)" d="m2168.8 274.97c-5.0624-0.0323-15.194 1.4521-17.844 3.9062-2.4317 2.252-4.9341 3.4873-8.0937 5.9062-2.553 1.9544 1.9192 2.9163 3.0937 3.5938 4.9698 2.8665 11.14 0.3891 11.625 7.5938 0.6331 9.4128 0.8842 17.628 0.9063 25.156 7.1136 8.4868 2.8621 18.003 1.875 27.875-1.0395 1.8675-2.0023 3.125-2.9376 3.75-0.2563 4.4932-0.5177 8.9747-0.75 13.688-8.3333-0.23907-15.363-0.53123-19.156-0.875-6.2494-0.5663-5.6202 3.4109-5.7812 5.1875-0.5062 5.5844 14.291 19.078 19.875 19.219 30.312 0.76655 46.533-6.467 71.781-19.562 3.2996-1.7114 3.2635-4.8644-0.9688-4.4688-4.0202 0.37588-9.6819 0.63181-16.156 0.78125-0.2735 1.9702-3.7211 3.6106-7.5938 4.375-5.7916 1.1432-12.514 0.33038-10.906-4.2188-1.9311-1e-3 -3.8357 0.011-5.7812 0 0.6194-76.324 0.6131-57.133 0-72.594-0.4873-12.285-1.535-17.807-11.375-19.188-0.4801-0.0673-1.0893-0.12038-1.8126-0.125z"/>
   <path d="m2161.5 631.73c-12.397 1.2656-11.86 15.714-6.3718 21.323 8.1485 8.3265 20.454-2.2927 25.474-9.1201 9.8443-13.389-10.185-13.113-19.102-12.202z"/>
  </g>
  <path d="m1993.3 663.89c-1.3574 1e-3 -2.7824 0.0555-4.25 0.15625-3.6284 4.3982-8.4979 5.3292-13.906 2.8438-4.1101 1.5435-7.9355 3.793-10.938 7.0312-0.9516 1.027-0.8795 2.3506 0.625 3 7.8129 3.3714 13.269 3.112 18.594 10.594 0.1609 8.564 0.037 18.253-0.3125 28.344 16.178 3.0827 6.9057 8.6382-0.5 11.688-0.4623 9.2426-1.0862 18.62-1.8437 27.656-0.02 0.23692 0.01 0.45748 0 0.6875-5.0409-0.23748-10.068-0.45628-15.063-0.59375-0.894-0.0246-2.2187 0.41294-2.2187 1.3438 0 7.4877 3.9887 16.217 10.938 19.656 9.4575 0 44.499-1.9135 67.469-12.281 2.9465-1.3301 1.851-2.9471-0.1876-3.1875-4.4811-0.52844-9.2999-1.0353-14.281-1.5312-0.8391 1.6213-1.9211 3.1514-3.4375 4.8438-2.8705-0.28705-4.9233-2.6827-6.4063-5.7812-3.6074-0.31844-7.2601-0.62192-11-0.90625 1.3907-14.303-0.083-37.936 3.8438-53.688 2.3953-8.1514 3.3951-17.784 13.281-17.281 5.6025 0.2851 12.895 5.8205 13.375 11.281 0.3044 3.4668-2.7348 11.926-8 11.781-2.8469-0.0785-3.8812-1.2116-5.5312-3.5-0.5696-0.79007-1.9274-0.0703-1.4688 0.90625 3.2446 6.9059 6.6407 8.9688 12.5 8.9688 7.7502 0 15.663-5.5882 15.75-21.875 0.099-18.469-14.301-24.696-25.437-27.062-8.2383-1.751-13.824 7.6657-20.281 15l-0.094-6.2812c-0.074-6.2605-6.4162-11.816-11.219-11.812z"/>
  <path d="m1913.7 667.55c-2.0407-0.0116-3.776 0.13753-5.0312 0.4375-16.322 3.9005-28.091 18.613-33.188 35.562 11.007 4.6968 9.3922 13.9-2.7187 15.312-0.067 1.1794-0.094 2.3572-0.094 3.5312 0 17.271 16.115 46.757 34.125 51.406 2.9174 0.75323 9.1832 2 12.406 2 19.338 0 47.635-15.146 47.188-55.062-0.1376-12.283-2.9847-24.854-9.3125-34.344-1.7553 0.12881-3.8879-0.5175-6.75-2.625-4.1162-3.031-8.8075-0.30635-10.75-2.375-1.5722-1.674-1.9771-4.5242-1.0625-9.3125-8.0131-2.8397-18.112-4.4933-24.812-4.5312zm8.4688 16.281c13.452 0 19.037 7.0018 17.656 39.969-0.7181 17.138-7.6793 33.36-21.531 33.562-15.728 0.22991-20.75-10.146-20.75-24.062-2e-4 -15.496 7.3959-49.469 24.625-49.469z"/>
  <path d="m1773.4 614.58c-1.0517 0.0442-2.1488 0.19601-3.2813 0.4375-9.3438 1.9926-12.929 1.5615-17.406 4.5938-6.2616 4.2404-8.9641 8.101-6.0312 8.75 2.9941 0.66275 10.339 2.7112 13.406 4.5 4.6066 2.6868 5.4423 3.2903 5.4062 8.5-0.1333 19.072-0.2573 42.794-0.4687 65.594 3.1554 13.127 6.2058 6.858 5.9687 11.281-0.3067 5.727-2.9461 8.8718-6.2187 11-0.1433 10.932-0.3126 21.217-0.5313 29.781-0.5428 21.275 4.4535 20.348 19.156 17.938 7.9151-1.2978 19.502-10.335 19.156-14.969 2.3333-1.0372 7.0172-5.4869 10.562-8.2188 4.5945-3.5399 5.8105-7.6027 1.5626-6.0312-7.9511 2.9412-20.114 10.148-25.469 1.4688 0.6273-13.763 0.8676-31.743 0.9375-50.469 9.2127-6.7548 16.41-16.51 27.969-16.25 7.6368 0.17202 14.891 4.1118 14.563 15.938-0.5145 18.497-1.2369 45.988-1.4063 70.688-0.047 6.8371 3.9171 9.1106 8.7187 9.25 7.105 0.20633 18.09-1.0511 24.156-5.375 3.4578-2.4643 9.4084-2.9986 9.875-10.875 2.8282-2.8282 5.2037-5.1554 8.9375-7.5938 6.868-4.485 9.4934-12.46-2.2188-5.375-8.3863 5.0733-17.433 6.4547-23.437 0.21875-0.055-2.2905-0.079-4.1593-0.125-6.25-2.4103 0.39341-4.725 0.53014-6.5626-1.0625-1.5913-1.3795 1.2557-4.1441 6.375-7.9062-0.2376-13.149-0.2994-24.912-0.125-46.719 0.1125-14.008-21.73-27.932-43.969-24.562-9.0299 1.3684-15.03 10.505-22.719 23.625 0-8.8822-0.03-17.676-0.063-26.25-11.185-1.2695-18.42-3.2449-0.031-10.688-0.029-7.2776-0.059-14.583-0.062-20.844 0-6.0009-6.0014-13.956-15.594-14.125-0.3428-6e-3 -0.6807-0.0147-1.0313 0z"/>
  <path d="m1714.1 663.74c-12.684 0.0715-30.488 8.732-34.094 12.062-5.3143 4.9084-11.384 14.666-16.156 26.781-0.446 1.1322 0.7758 3.7692 2.125 2.0938 10.311-12.803 29.403-20.787 41.125-20.188 8.3479 0.42671 11.009 7.0763 11.875 14.594-1.717-0.78214-3.6028-1.0783-5.6562-0.65625-7.9497 1.6341-16.093 6.1956-23.406 11.469 1.1195 3.0068 1.3627 6.4894-0.7187 9.9688-4.3267 1.4422-8.6259 1.2453-11.813 0.28125-4.7256 4.2474-8.5511 8.0452-10.875 10.25-3.18 3.0175-8.7016 14.507-8.625 24.25 0.106 13.4 7.7654 21.36 18.938 22.531 12.077 1.2664 29.925-4.4942 43.156-10.969-0.015 2.0214-0.01 4.041-0.031 6.0625 0.3059 2.8918 2.5746 4.4169 5.5624 4.9375 2.8341 0.49376 6.3376 0.45276 10-0.0937 1.1192-4.4795 3.2479-8.9795 5.5626-10.031 2.2878-1.0396 4.7578 1.3919 8.0312 5.7188 1.5308-0.78951 2.9663-1.6575 4.25-2.625 4.9658-3.7426 6.8083-7.5135 4.5938-10.406 3.9369-1.0152 9.424-3.5081 11.75-5.7188 2.4447-2.3239 4.2715-9.2101-1.3438-5.8125-4.8232 2.9183-13.392 7.171-24.469 1.4062-0.7676-2.7062-0.4363-19.809-0.25-33.344-9.7948-1.3275-9.5116-6.9977 0.094-11.344-0.01-1.8568-0.031-3.3687-0.094-4.2812-0.7038-10.212-7.984-28.543-21.781-35.438-2.142-1.0703-4.8229-1.5165-7.75-1.5zm-0.1875 63.719c2.2957-0.0614 4.3429 0.45687 5.9375 0.78125 0.069 4.6565 0.126 9.3117 0.1562 13.969-10.679 8.6689-22.197 16.125-34.25 16.125-5.2728 0-7.6248-1.2937-7.625-4.3438 0-4.0046 2.4475-7.9182 5.5313-10.5 8.8902-7.443 18.113-12.853 27.219-15.562 1.0315-0.3068 2.0609-0.44279 3.0313-0.46875z"/>
  <path d="m1551.5 661.39c-6.8323 0.1007-17.831 7.7846-25.469 16.094-5.9947 6.5222-2.3437 9.4711 1.75 6.1562 12.926-10.466 15.954 8.3514 18.625 11.844v51.531c4.666 1.8614 9.2194 6.2338 10.281 8.9688 2.0066 5.168-4.4617 7.2757-10.281 7.7188v3.9062c2.5566 16.604 10.878 11.432 18.063 8.8438 6.1751-2.2252 21.913-5.9334 20.656-18.812 2.1782-1.6942 3.8404-2.8234 6.2812-6.2812 2.4019-3.4023 5.0209-10.681-1.8124-6.6875-5.1513 3.0105-11.853 10.415-19.469 5.9062 0-14.878 0.6854-43.024-0.2188-59.688 9.4774-7.0926 31.617-14.235 38.281 0.3125 0 18.694-0.062 57.156-0.062 81.219 0 2.925 0.5006 6.4062 7.2188 6.4062 3.8781 0 15.704 0.28222 20.437-3.625 5.0915-4.2026 10.445-6.3323 8.2813-11.406 8.0871-3.7846 11.11-11.443 13.531-16.875 2.7563-6.1829 3.7164-13.993-2.7813-6.7188-4.9777 5.5728-14.464 13.981-22.656 10.281 0.1893-6.9633 0.2455-14.497 0.25-22.094-13.237-6.1046-2.0597-10.098-5.0624-18.375-1.9933-5.4939 1.8417-12.774 4.75-17.656-0.09-6.5982-0.1563-12.451-0.1563-16.5 0-9.5083-15.631-13.04-24.656-13.75-4.5435-0.35756-10.855 1.7013-18.031 5.375 3.2091 7.6613-4.5014 8.9696-10.844 6.3438-3.1718 2.0544-6.4251 4.3016-9.6874 6.7188-2.2882-10.84-7.7588-16.973-15.25-18.938-0.6098-0.15985-1.262-0.22917-1.9688-0.21875z"/>
  <path d="m1488.2 663.74c-12.684 0.0715-30.488 8.732-34.094 12.062-5.3143 4.9084-11.384 14.666-16.156 26.781-0.446 1.1322 0.7758 3.7692 2.125 2.0938 10.311-12.803 29.403-20.787 41.125-20.188 8.3479 0.42671 11.009 7.0763 11.875 14.594-1.717-0.78214-3.6028-1.0783-5.6562-0.65625-16.752 3.4435-34.274 19.882-43.25 28.562 9.6599 9.2845-0.8484 14.151-9.4063 13.781-1.6203 4.2988-2.8175 9.2819-2.7813 13.875 0.1059 13.4 7.7654 21.36 18.938 22.531 1.0643 0.11162 2.1967 0.14949 3.3437 0.15625 2.8144-5.1604 5.9992-6.9602 12.688-6.9688 4.949-6e-3 -0.018 2.297-2.8438 6.0312 9.9581-1.773 21.021-5.809 29.969-10.188-0.015 2.0214-0.01 4.041-0.031 6.0625 0.306 2.8918 2.5746 4.4169 5.5624 4.9375 7.7103 1.3433 20.323-1.3634 27.844-7.0312 4.9658-3.7426 6.8083-7.5135 4.5938-10.406 3.937-1.0152 9.4241-3.5081 11.75-5.7188 2.4447-2.3239 4.2715-9.2101-1.3438-5.8125-4.8232 2.9183-13.392 7.171-24.469 1.4062-1.1647-4.1057 0.224-42.094-0.25-48.969-0.7038-10.212-7.984-28.543-21.781-35.438-2.142-1.0703-4.8229-1.5165-7.75-1.5zm-0.1875 63.719c2.2957-0.0614 4.3429 0.45687 5.9375 0.78125 0.069 4.6565 0.126 9.3117 0.1562 13.969-10.679 8.6689-22.197 16.125-34.25 16.125-5.2729 0-7.6249-1.2937-7.625-4.3438 0-4.0046 2.4475-7.9182 5.5313-10.5 8.8902-7.443 18.113-12.853 27.219-15.562 1.0314-0.3068 2.0609-0.44279 3.0313-0.46875z"/>
  <path transform="translate(0,389.36)" d="m1414.3 175.84c-35.44 0.41882-77.661 14.013-143.31 5.8125-5.1096-0.63826-6.0009 4.9532-4.4687 12.219 4.6009 0.66896 8.1659 2.8532 10.25 6.75 1.7907 3.3482-3.5792 1.3971-6.6563 4.1562 3.7564 8.5427 9.4303 16.534 14.781 18.125 14.24 4.234 30.153 2.9305 46.375-0.75-7.6615-3.6899-11.045-7.1916-2.1875-9.0312 7.9453-1.6503 12.331-2.2059 13.312 0.65625 0.4305 1.256 0.1614 3.3619-0.625 5.7188 23.806-6.6776 47.618-17.047 67.094-21.375-18.186 55.442-78.353 132.44-114.53 159.25-4.4394-0.34992-9.0912-0.70516-14.281-1.0625-5.485-0.3776-9.7618 5.7865-11.031 10.562-4.912 18.479 12.907 20.88 24.062 22.781 10.99 1.8728 31.664 0.27235 44.656-1.6875 18.747-2.8279 40.246-9.9268 59.719-17.25 0.088-3.3036 2.1658-7.4842 6.7188-8.5938 4.8257-1.1762 9.2963-0.13389 14.156 0.46875 4.3154-1.7318 8.4642-3.4321 12.219-4.9375 9.2928-3.7262 9.1815-6.969 0.8124-5.7188-44.428 6.6372-76.925 8.7114-87.031 8.625-8.5761-0.0734-16.535-0.55354-25.312-1.2188 8.1717-5.9074 16.579-12.852 25-20.438-4.7308 5e-3 -11.111-0.81842-5.1563-4.1875 3.8636-2.1856 8.2153-3.6673 13.094-3.125 25.62-24.306 50.471-53.679 67.344-77.906-2.219-2.7609-3.5234-5.5554 0.3124-9.5312 3.1357-3.2499 4.3701-5.7149 9.625-5.6562 8.3862-13.84 12.781-24.596 11.25-29.5-6.3306-20.279-8.5568-32.966-22.781-33.156-1.1296-0.0151-2.2631-0.0135-3.4062 0z"/>
  <path transform="translate(0,389.36)" d="m1193.5 308.25c-4.6075 0.0663-13.307 0.98049-16 2.2812-2.8329 1.3681-8.3494 4.2869-9.375 4.9375-7.3671 4.6735-0.042 3.863 2.0938 2.7188 1.4737-0.78965 4.5585-1.855 6.5312-1.75 2.273 0.12094 6.8125 2.823 6.8125 5.1875v14.188c1.5003 3.0656 3.5294 5.6412 4.75 8.6562 3.5413 8.7479-1.4606 13.305-4.75 18.781v19.062c-9.1912 6.9846-17.628 12.82-21.5 14.562-4.387 1.9742-8.0346 5.6692-11.938-3.8438 0-8.812-0.2188-52.742-0.2188-71.688 0-6.6297-4.5043-9.645-8.75-9.875-7.5634-0.40979-19.512 3.01-22.625 4.625-1.7864 0.92699-8.4447 7.2714-10.812 9.9062-10.532 11.718 1.4009 4.5438 3 3.4688 2.477-1.6656 8.7804-2.5312 10.75-2.5312 1.9452 0 4.5312 5.9518 4.5312 10.656 0 19.48 0.031 57.441 0.062 66.188 0.01 1.4986 0.8577 3.6747 2.1875 6.0625 5.1675-3.0101 10.846-4.0822 12.875-2.1562 3.4528 3.2773-0.1145 9.1777-3.2812 13.906 1.9891 1.6292 3.8925 2.6875 5.4062 2.6875 5.1282 0 11.26-0.46337 19.406-2.625 2.4977-0.66261 11.507-7.4209 20.906-15.438v18.844c-5.0965 4.0788-9.884 8.041-13.812 11.438-9.1828 7.9394-15.537 19.043-15.5 23.594 0.048 6.1483-1.302 7.4894 0 11.844 2.0929 6.9989 12.816 15.312 17.906 15.312 4.3608 0 19.472-3.7218 24.469-8.8438 3.4017-3.4865 11.844-12.446 11.844-22.625v-21.469c-6.3536 1.3912-11.948 2.7311-12.406-0.34375-0.4409-2.9596 3.0852-7.2927 12.406-10.406v-11.312c4.2784-3.2899 8.5641-6.3374 12.656-8.9688 5.3133-3.4168 7.7224-10.763-0.6562-5.5625-2.9339 1.8209-7.1755 4.7715-12 8.2812v-24.969c2.5455-4.1053 2.351-6.6029 2.25-10.406 4.0833-4.0669 8.0276-8.9092 8.7187-11.781 1.0487-4.358 2.0381-10.8-2.2813-5.5938-1.8103 2.1824-4.9034 5.2148-8.6874 8.625v-45.75c0-3.0785-8.7016-7.5839-13.25-7.8438-0.4611-0.0263-1.0606-0.0407-1.7188-0.0312zm-9.9375 126.34v23.344c0 6.5628-1.8074 7.5938-5.3437 7.5938-6.3464 0-9.3507-11.44-7.4063-14.75 2.8635-4.8754 7.3574-10.471 12.75-16.188z"/>
  <path transform="translate(0,389.36)" d="m1014.9 274.38c-12.684 0.0715-30.488 8.732-34.094 12.062-5.3144 4.9084-11.384 14.666-16.156 26.781-0.446 1.1322 0.7758 3.7692 2.125 2.0938 10.311-12.803 29.403-20.787 41.125-20.188 8.3479 0.42671 11.009 7.0763 11.875 14.594-1.717-0.78214-3.6028-1.0783-5.6562-0.65625-16.752 3.4435-34.275 19.882-43.25 28.562 9.66 9.2845-0.8484 14.151-9.4062 13.781-1.6203 4.2988-2.8176 9.2819-2.7812 13.875 0.1056 13.4 7.7654 21.36 18.938 22.531 0.75481 0.0792 1.5464 0.13046 2.3438 0.15625 3.1023-6.6982 6.2037-8.9592 13.688-8.9688 5.8629-7e-3 -2.1739 3.2305-4.0938 8.25 10.275-1.6438 21.894-5.8431 31.219-10.406-0.015 2.0214-0.01 4.041-0.031 6.0625 0.3061 2.8918 2.5747 4.4169 5.5624 4.9375 7.7103 1.3433 20.323-1.3634 27.844-7.0312 4.9658-3.7426 6.8081-7.5135 4.5938-10.406 3.9369-1.0152 9.4239-3.5081 11.75-5.7188 2.4447-2.3239 4.2715-9.2101-1.3438-5.8125-4.8232 2.9183-13.392 7.171-24.469 1.4062-1.1647-4.1057 0.2241-42.094-0.25-48.969-0.3985-5.7843-2.8919-14.184-7.5-21.625-2.825 0.40279-5.8751 0.1958-9.0624-0.625-0.7696-2.5649-1.3838-6.3208-0.1563-9.9375-1.5761-1.2432-3.265-2.3518-5.0625-3.25-2.142-1.0703-4.8229-1.5165-7.75-1.5zm-0.1875 63.719c2.2957-0.0614 4.3429 0.45687 5.9375 0.78125 0.069 4.6565 0.126 9.3117 0.1562 13.969-10.679 8.6689-22.197 16.125-34.25 16.125-5.2732 0-7.625-1.2937-7.625-4.3438 0-4.0046 2.4474-7.9182 5.5312-10.5 8.8902-7.443 18.113-12.853 27.219-15.562 1.0313-0.3068 2.0609-0.44279 3.0313-0.46875z"/>
  <path d="m896.56 627.08c-2.4919 0.10194-2.8087 1.4159-2.125 2.5312 0.69599 1.1354 1.2467 2.3571 1.875 3.5312 0.0451 3.5339 0.0703 7.1308 0.0625 10.75 1.1777 3.0872 2.6351 5.5874 6.0938 6.625 5.1482 7.159-1.0338 9.4151-6.3125 12.156-0.0765 3.91-0.17903 7.846-0.28125 11.812-6.194 1.8746-12.276 3.887-18.219 6.1562-0.8404 0.32091-1.0042 1.6324-0.96875 2.5312 0.12804 3.2773 8.5163 16.246 13.594 16.281 1.6275 0.0112 3.2699-0.0454 4.9062-0.125-0.0947 3.4901-0.16718 7.0005-0.25 10.5 3.6804 3.7816 6.3756 7.2642 7.125 12.094 1.1021 7.1023-3.5878 7.2976-7.4688 4.625-0.0986 7.5486-0.11759 15.08-0.0312 22.562 0.12689 11.001 16.092 30.478 22.406 30.188 11.732-0.53926 14.7 2.2792 25.094-6.3438 3.1325-2.5988 5.3976-7.5059 3.625-13.094 6.2928-5.819 6.9838-17.088 9.0938-26.406 0.2538-1.121-0.6943-1.6899-1.5-0.9375-9.3846 8.7627-22.118 24.582-29.5 24.438-3.9739-0.0776-4.4642-8.3243-4.4062-13.25 0.18983-15.606 0.35153-32.593 0.625-49.938 0.0514-0.0228 0.10491-0.0395 0.15625-0.0625 4.3388-1.9422 8.5778-4.4239 12.75-7.1875 0.40778-6.7022 2.9693-8.9411 10.219-11.781 2.2194-0.86952 5.2097-1.4527 8.1562-2.0938 4.2417-3.4448 8.435-6.8725 12.562-10.062 1.5196-1.1744 1.1576-2.2702-0.875-2.25-15.071 0.14995-23.727 3.4181-38.844 6.8125-1.2104 0.27179-2.3944 0.56562-3.5938 0.84375 0.24034-9.865 0.51624-19.718 0.90625-29.375 0.1829-4.5264-18.685-11.784-24.875-11.531z"/>
  <path d="m784.7 661.39c-6.8323 0.1007-17.831 7.7846-25.469 16.094-5.995 6.5222-2.3439 9.4711 1.75 6.1562 12.926-10.466 15.954 8.3514 18.625 11.844v19.219c2.2837 4.0976 6.0934 7.4994 7.2812 9.2812 1.7415 6.874-3.1742 10.872-7.2812 14.594v29.031c2.5562 16.604 10.878 11.432 18.062 8.8438 6.1754-2.2252 21.913-5.9334 20.656-18.812 2.1782-1.6942 3.8404-2.8234 6.2812-6.2812 2.4016-3.4023 5.0209-10.681-1.8125-6.6875-5.1512 3.0105-11.853 10.415-19.469 5.9062 0-14.878 0.68536-43.024-0.21875-59.688 9.4774-7.0926 31.617-14.235 38.281 0.3125 0 4.4308 5e-3 13.053 0 19.25 4.1919 2.353 8.6576 3.8505 9.125 7.375 0.74467 5.6154-4.334 5.1801-9.1562 3.5938-0.0183 18.005-0.0312 35.89-0.0312 51 0 2.925 0.50065 6.4062 7.2188 6.4062 3.8784 0 15.704 0.28222 20.438-3.625 5.0915-4.2026 10.445-6.3323 8.2812-11.406 8.0871-3.7846 11.109-11.443 13.531-16.875 2.7565-6.1829 3.7164-13.993-2.7812-6.7188-4.9777 5.5728-14.464 13.981-22.656 10.281 0.7073-26.058-0.21875-60.304-0.21875-74.625 0-9.5083-15.631-13.04-24.656-13.75-2.3719-0.18665-5.2337 0.30004-8.4375 1.3125 0.0225 3.7528-2e-3 6.0554-3.6875 7.9688-3.9296 0-7.3744 0.29948-10.719-1.2812-5.0266 2.9072-10.343 6.4546-15.719 10.438-2.2879-10.84-7.7588-16.973-15.25-18.938-0.60945-0.15985-1.262-0.22917-1.9688-0.21875z"/>
  <path d="m724.27 658.77c-24.74 0.10051-59.594 35.062-59.594 64.594 0 0.42097 0.0212 0.87155 0.0312 1.3125 5.3892 1.7379 9.6036 5.2833 10 9.5625 0.57461 6.2035-5.0058 4.1861-8.7812 2.2812 3.2409 18.522 13.121 41.594 33.281 41.594 11.111-0.0628 25.877-1.5974 36.812-7.6875 1.6714-0.93082 2.7762-1.5499 4.4688-4.8438 3.2985-6.4195 3.2972-16.113 5.4688-22.969 0.34002-1.0735-0.78281-2.0258-2.4062-0.90625-11.979 8.2604-31.256 18.5-40.125 18.5-4.5528 0-10.767-8.7308-12.625-23.688 7.964-2.0492 18.702-4.5978 29-7.0938-0.17231-3.5196 2.538-4.3451 6.2188-7.5 5.7187-1.0628 10.489 0.27473 15 2.125 0.23408-0.0643 0.52195-0.12411 0.75-0.1875 4.3295-1.2035 13.433-8.0563 13.312-12.781 0 0 0.98065-7.2218 0.90625-10.156-0.45576-17.941-11.998-42.236-31.719-42.156zm2.3438 17.438c8.0587 0 5.5727 21.082 4.9688 26.375-0.15416 1.3513-2.8922 3.9667-4.1562 4.4688-7.8297 3.1096-24.921 6.9222-36 9.2812 4.4256-18.812 20.808-35.173 35.188-40.125z"/>
  <g transform="translate(53.745)">
   <path transform="translate(0,389.36)" d="m573.78 274.97c-5.0626-0.0323-15.194 1.4521-17.844 3.9062-2.4317 2.252-4.934 3.4873-8.0938 5.9062-2.5529 1.9544 1.9192 2.9163 3.0938 3.5938 4.9698 2.8665 11.14 0.3891 11.625 7.5938 0.0483 0.71734 0.0811 1.39 0.125 2.0938 2.3735 1.9014 5.0279 4.0616 5.8125 5.375 1.6858 2.8222 1.1156 6.1646-0.40625 8.5938-1.2266 1.9578-2.8197 2.3106-4.6875 2.375 0.42654 20.01-0.899 34.76-1.75 52.031-8.3336-0.23907-15.363-0.53123-19.156-0.875-6.2494-0.5663-5.6202 3.4109-5.7812 5.1875-0.5059 5.5844 14.291 19.078 19.875 19.219 8.231 0.20815 15.415-0.19622 22.031-1.125 0.14185-9.9705 6.5889-10.254 11.5-2.25 12.642-3.2731 24.012-8.8028 38.25-16.188 3.2996-1.7114 3.2634-4.8644-0.96875-4.4688-3.6909 0.34508-8.7833 0.59765-14.594 0.75-4.2558 6.9302-11.186 7.6582-15.594 0.1875-3.3718 0.0126-6.8006 0.0195-10.25 0 0.6197-76.324 0.61334-57.133 0-72.594-0.4871-12.285-1.535-17.807-11.375-19.188-0.4798-0.0673-1.0893-0.12038-1.8125-0.125z"/>
   <path transform="translate(0,389.36)" d="m570.88 242.03c-1.5883 0.0666-3.0836 0.2151-4.3438 0.34375-12.397 1.2656-11.864 15.704-6.375 21.312 8.1485 8.3265 20.449-2.2976 25.469-9.125 4.8567-6.6055 2.4516-9.8881-2.3125-11.406-3.4206 4.2368-7.552 9.1615-12.75 8.5625-4.62-0.53236-3.2602-4.6049 0.3125-9.6875z"/>
  </g>
  <path d="m453.45 663.33c-0.48585-0.0105-0.9651 5e-3 -1.4375 0.0312-6.7102 0.37636-17.987 3.6024-27.062 8.875-13.198 7.668-5.9929 6.2438 2.0938 6.9375 9.7184 0.83364 15.468 10.188 15.906 14.562 2.2802 22.766-0.65983 52.26-0.0312 71.344 3.5391-2.8765 6.5803-4.1348 9.0938-1.2812 2.1567 2.4485-3.9414 8.0971-7.0938 10.844 1.0748 2.0593 2.5038 3.2868 4.0312 3.5938 7.8845 1.5845 13.939-0.27514 20.938-4.625 2.5259-1.5699 3.3663-3.6162 5.875-6.2812 3.0179-3.206 7.345-7.0996 5.3438-9.6875 3.4551-3.7094 4.8944-4.2938 8.125-7.5 2.9495-2.9273 2.1843-6.4784-2.3125-3.6875-5.4287 3.3693-14.697 9.7053-17.812 4.9688-0.30954-16.091-0.0632-41.627 0.0625-60.875 10.489-5.7076 26.359-11.511 30 0.90625 0 16.749-0.18771 51.312 0.40625 82.469 0.0691 3.6268 5.8469 5.9561 12.562 5.25 3.4618-0.364 16.252-3.3106 18.438-9.0938 1.8416-4.8726 6.8979-3.583 4.7812-11.031 4.4078-2.7958 6.8595-4.7013 9.6875-9 2.1214-3.2246 1.5378-4.7869-5.5938-0.46875-7.6194 4.6135-16.201 3.8492-15.531 0.125-8e-3 -13.204-0.0416-30.527-0.28125-44.656-5.8632-4.3012-9.8795-7.2949-0.34375-13.656-0.0896-2.3412-0.19528-4.466-0.3125-6.1875 4.495-1.825 9.5411-3.2558 14.219-3.2188 7.6831 0.0609 14.814 6.1607 14.969 10.719 0.71285 21.036 1.772 48.322 1.25 74.906-0.15656 7.9732 1.739 11.75 7.9375 11.75 7.1884 0 26.711-6.9204 23.375-15.688 6.4546-3.7997 0.31981-6.0329 9.9688-13.875 5.9949-4.8723 5.6938-9.7326 1.125-6.6875-5.8434 3.8946-16.425 10.172-17.969 5.5312-0.0453-5.5304-0.13174-13.144-0.21875-20.344-8.6523 0.95295-8.0849-7.713-9.0625-11.25-1.1964-4.3288 0.4159-7.3595 8.8438-11.844-0.0361-6.9613-0.0436-13.778 0.0312-19.812 0.15311-12.345-15.834-21.749-28.438-21.25-3.4144 0.1353-17.623 3.0314-30.688 8.9688-6.5354-7.0682-18.171-9.553-21.25-9.2188-0.90131 0.0978-2.3558 0.42285-4.125 0.90625 0.30793 4.5899-0.27855 7.1626-4.75 10.344-3.2221-0.71602-7.0264-2.0818-10.75-4.0938-2.7907 1.5003-5.5842 3.228-8.1875 5.2188-0.0432-8.4509-8.5247-12.78-15.812-12.938z"/>
  <g transform="translate(75.381)">
   <path transform="translate(0,389.36)" d="m313.78 274.97c-5.0626-0.0323-15.194 1.4521-17.844 3.9062-2.4317 2.252-4.934 3.4873-8.0938 5.9062-2.5529 1.9544 1.9192 2.9163 3.0938 3.5938 4.9698 2.8665 11.14 0.3891 11.625 7.5938 2.0398 30.326 0.18587 48.304-0.90625 70.469-8.3336-0.23907-15.363-0.53123-19.156-0.875-6.2494-0.5663-5.6202 3.4109-5.7812 5.1875-0.5059 5.5844 14.291 19.078 19.875 19.219 9.8506 0.2491 18.207-0.35155 25.875-1.7188-2.1466-4.0324-1.2848-6.8661 3.4375-8 7.9212-1.9019 15.361-0.37183 20.469 0.75 6.9193-2.9035 14.004-6.4466 22-10.594 3.2996-1.7114 3.2634-4.8644-0.96875-4.4688-8.5944 0.80353-24.495 1.0276-40.438 0.9375 0.6197-76.324 0.61334-57.133 0-72.594-0.4871-12.285-1.535-17.807-11.375-19.188-0.4798-0.0673-1.0893-0.12038-1.8125-0.125z"/>
   <path d="m306.54 631.73c-12.397 1.2656-11.86 15.714-6.3718 21.323 8.1485 8.3265 20.454-2.2927 25.474-9.1201 9.8443-13.389-10.185-13.113-19.102-12.202z"/>
  </g>
  <path d="m272.83 564.05c-0.76663 0.0154-1.5435 0.0547-2.3125 0.0937-4.8434 0.24571-9.624 0.49814-14.344 0.84375 0.43339 1.9434 0.4316 4.2609 0.0312 7.3125-10.107 5.6148-15.944 5.7667-21.062-4.7188-7.9138 1.5072-15.692 3.7436-23.375 7.25-1.8397 0.83965-3.8422 2.4398-4.1562 4.4375-0.99149 6.3081 2.3077 18.076 6 21.062 3.0951 2.5031 8.8746 3.8818 16.062 4.0312l-0.0937 8c3.6831 1.9632 7.8246 5.1019 6.5 11.062-2.277 0.62722-4.6771 1.6275-6.6562 2.9062l-0.90625 84.906c4.0754 1.5534 8.0538 3.4311 8.9688 5.7812 1.8845 4.8406-2.9732 10.93-9.2188 15.781l-0.21875 20.906c-7.3676-0.0765-13.201-0.0924-14.25 0.0312-2.1477 0.25322-4.4851 2.7914-4.2188 4.9375 1.1816 9.5193 4.3759 23.12 16.594 22.75 32.499-0.98308 61.551-11.276 94.25-24 1.0776-0.4193 3.3031-2.998 0.96875-3.0625-10.573-0.29195-21.576-0.12991-32.562 0-7.895 2.9542-9.5813 5.2563-14.344 3.9688-3.9488-1.0676-6.1548-2.2459-8.625-4.0625-3.4824-0.0541-6.789-0.0906-10.812-0.15625 0.0491-5.3332 0.0485-17.251 0.125-34.281 0.87785-0.14734 1.7287-0.28888 2.5625-0.46875 22.129-4.7738 43.249-12.919 60.531-23.531-2.3917-6.3308-3.103-12.38 0.4375-15.5 4.7962 0.32752 9.3542 4.3897 12.188 6.75 16.073-12.62 26.95-27.791 29.125-44.5 0.95568-7.3429-0.31994-15.209-3.375-23.031-1.9046 1.6566-3.621 2.9389-6.0312 1-3.4619-2.7849-2.0434-6.9771 0.34375-12.312-14.801-24.069-45.305-44.846-78.125-44.188zm22.781 28.156c1.2815-0.0273 2.5153-0.0143 3.7188 0.0625 17.719 1.1306 36.563 11.319 35.938 32.594-1.211 41.179-35.442 56.465-74.5 64-1.9123 0.3689-3.6951 0.66846-5.4062 0.96875 0.25221-30.75 0.76584-65.402 1.8438-90.031 13.065-3.3534 27.131-7.3533 38.406-7.5938z"/>
 </g>
</svg>
